<svg xmlns="http://www.w3.org/2000/svg" xmlns:xlink="http://www.w3.org/1999/xlink" width="542" height="90" viewBox="0 0 542 90">
  <defs>
    <filter id="Rectangle_129" x="0" y="0" width="270" height="90" filterUnits="userSpaceOnUse">
      <feOffset dy="10" input="SourceAlpha"/>
      <feGaussianBlur stdDeviation="5" result="blur"/>
      <feFlood flood-opacity="0.161"/>
      <feComposite operator="in" in2="blur"/>
      <feComposite in="SourceGraphic"/>
    </filter>
    <filter id="Rectangle_122" x="272" y="0" width="270" height="90" filterUnits="userSpaceOnUse">
      <feOffset dy="10" input="SourceAlpha"/>
      <feGaussianBlur stdDeviation="5" result="blur-2"/>
      <feFlood flood-opacity="0.161"/>
      <feComposite operator="in" in2="blur-2"/>
      <feComposite in="SourceGraphic"/>
    </filter>
  </defs>
  <g id="Component_1_2" data-name="Component 1 – 2" transform="translate(15 5)">
    <g id="Group_228" data-name="Group 228">
      <g transform="matrix(1, 0, 0, 1, -15, -5)" filter="url(#Rectangle_129)">
        <g id="Rectangle_129-2" data-name="Rectangle 129" transform="translate(15 5)" fill="rgba(255,255,255,0.28)" stroke="#fff" stroke-width="1">
          <rect width="240" height="60" stroke="none"/>
          <rect x="0.5" y="0.5" width="239" height="59" fill="none"/>
        </g>
      </g>
      <text id="Contact_Us" data-name="Contact Us" transform="translate(120 39)" fill="#fff" font-size="30" font-family="AlegreyaSans-Bold, Alegreya Sans" font-weight="700"><tspan x="-63" y="0">Contact Us</tspan></text>
    </g>
    <g id="Group_227" data-name="Group 227" transform="translate(272)">
      <g transform="matrix(1, 0, 0, 1, -287, -5)" filter="url(#Rectangle_122)">
        <rect id="Rectangle_122-2" data-name="Rectangle 122" width="240" height="60" transform="translate(287 5)" fill="#48bff1"/>
      </g>
      <text id="More_Details" data-name="More Details" transform="translate(120 39)" fill="#fff" font-size="30" font-family="AlegreyaSans-Bold, Alegreya Sans" font-weight="700"><tspan x="-76" y="0">More Details</tspan></text>
    </g>
  </g>
</svg>
